{
   "abstract" : "store a record in a database",
   "author" : [
      "Diab Jerius <djerius@cpan.org>"
   ],
   "dynamic_config" : 0,
   "generated_by" : "Dist::Zilla version 6.032, CPAN::Meta::Converter version 2.150010",
   "license" : [
      "gpl_3"
   ],
   "meta-spec" : {
      "url" : "http://search.cpan.org/perldoc?CPAN::Meta::Spec",
      "version" : 2
   },
   "name" : "Data-Record-Serialize-Encode-dbi",
   "no_index" : {
      "directory" : [
         "eg",
         "examples",
         "inc",
         "share",
         "t",
         "xt"
      ]
   },
   "prereqs" : {
      "configure" : {
         "requires" : {
            "Module::Build::Tiny" : "0.034"
         }
      },
      "develop" : {
         "requires" : {
            "Dist::Zilla" : "5",
            "Dist::Zilla::Plugin::BumpVersionAfterRelease" : "0",
            "Dist::Zilla::Plugin::CheckMetaResources" : "0",
            "Dist::Zilla::Plugin::CopyFilesFromRelease" : "0",
            "Dist::Zilla::Plugin::EnsureChangesHasContent" : "0",
            "Dist::Zilla::Plugin::EnsurePrereqsInstalled" : "0",
            "Dist::Zilla::Plugin::FileFinder::Filter" : "0",
            "Dist::Zilla::Plugin::GatherDir" : "0",
            "Dist::Zilla::Plugin::GatherDir::Template" : "0",
            "Dist::Zilla::Plugin::InsertCopyright" : "0",
            "Dist::Zilla::Plugin::InsertExample" : "0",
            "Dist::Zilla::Plugin::MetaJSON" : "0",
            "Dist::Zilla::Plugin::MetaNoIndex" : "0",
            "Dist::Zilla::Plugin::MetaProvides::Package" : "0",
            "Dist::Zilla::Plugin::MetaResources" : "0",
            "Dist::Zilla::Plugin::ModuleBuildTiny" : "0",
            "Dist::Zilla::Plugin::NextRelease" : "0",
            "Dist::Zilla::Plugin::PodCoverageTests" : "0",
            "Dist::Zilla::Plugin::PodSyntaxTests" : "0",
            "Dist::Zilla::Plugin::PodWeaver" : "0",
            "Dist::Zilla::Plugin::Prereqs" : "0",
            "Dist::Zilla::Plugin::Prereqs::AuthorDeps" : "0",
            "Dist::Zilla::Plugin::Readme::Brief" : "0",
            "Dist::Zilla::Plugin::ReadmeAnyFromPod" : "0",
            "Dist::Zilla::Plugin::Regenerate" : "0",
            "Dist::Zilla::Plugin::RewriteVersion" : "0",
            "Dist::Zilla::Plugin::RunExtraTests" : "0",
            "Dist::Zilla::Plugin::Test::CPAN::Changes" : "0",
            "Dist::Zilla::Plugin::Test::CPAN::Meta::JSON" : "0",
            "Dist::Zilla::Plugin::Test::CleanNamespaces" : "0",
            "Dist::Zilla::Plugin::Test::Compile" : "0",
            "Dist::Zilla::Plugin::Test::DistManifest" : "0",
            "Dist::Zilla::Plugin::Test::Fixme" : "0",
            "Dist::Zilla::Plugin::Test::NoBreakpoints" : "0",
            "Dist::Zilla::Plugin::Test::NoTabs" : "0",
            "Dist::Zilla::Plugin::Test::Perl::Critic" : "0",
            "Dist::Zilla::Plugin::Test::PodSpelling" : "0",
            "Dist::Zilla::Plugin::Test::ReportPrereqs" : "0",
            "Dist::Zilla::Plugin::Test::TrailingSpace" : "0",
            "Dist::Zilla::Plugin::Test::Version" : "0",
            "Dist::Zilla::PluginBundle::Basic" : "0",
            "Dist::Zilla::PluginBundle::Filter" : "0",
            "Pod::Coverage::TrustPod" : "0",
            "Pod::Weaver::Plugin::StopWords" : "0",
            "Pod::Weaver::Section::Contributors" : "0",
            "Pod::Weaver::Section::GenerateSection" : "0",
            "Pod::Weaver::Section::SeeAlso" : "0",
            "Software::License::GPL_3" : "0",
            "Test::CPAN::Changes" : "0.19",
            "Test::CPAN::Meta::JSON" : "0.16",
            "Test::CleanNamespaces" : "0.15",
            "Test::DistManifest" : "0",
            "Test::More" : "0.88",
            "Test::NoBreakpoints" : "0.15",
            "Test::NoTabs" : "0",
            "Test::Perl::Critic" : "0",
            "Test::Pod" : "1.41",
            "Test::Pod::Coverage" : "1.08",
            "Test::Spelling" : "0.12",
            "Test::TrailingSpace" : "0.0203",
            "Test::Version" : "1"
         }
      },
      "runtime" : {
         "recommends" : {
            "DBD::SQLite" : "1.31"
         },
         "requires" : {
            "DBI" : "0",
            "Data::Record::Serialize" : "0",
            "Data::Record::Serialize::Error" : "0",
            "Hash::Util" : "0",
            "List::Util" : "1.33",
            "Monkey::Patch" : "0",
            "Moo::Role" : "2.003004",
            "Path::Tiny" : "0",
            "SQL::Translator" : "0",
            "SQL::Translator::Schema" : "0",
            "Types::Common::String" : "0",
            "Types::Standard" : "1.010003",
            "custom::failures" : "0",
            "enum" : "0",
            "namespace::clean" : "0",
            "perl" : "5.012"
         }
      },
      "test" : {
         "recommends" : {
            "CPAN::Meta" : "2.120900",
            "Convert::Scalar" : "0",
            "DBD::SQLite" : "0"
         },
         "requires" : {
            "Data::Record::Serialize" : "0",
            "ExtUtils::MakeMaker" : "0",
            "File::Spec" : "0",
            "IO::Handle" : "0",
            "IPC::Open3" : "0",
            "Path::Tiny" : "0",
            "Test2::Plugin::NoWarnings" : "0",
            "Test2::Tools::AfterSubtest" : "0",
            "Test2::V0" : "0",
            "Test::More" : "0",
            "Test::TempDir::Tiny" : "0.010"
         }
      }
   },
   "provides" : {
      "Data::Record::Serialize::Encode::dbi" : {
         "file" : "lib/Data/Record/Serialize/Encode/dbi.pm",
         "version" : "1.08"
      }
   },
   "release_status" : "stable",
   "resources" : {
      "bugtracker" : {
         "mailto" : "bug-data-record-serialize-encode-dbi@rt.cpan.org",
         "web" : "https://rt.cpan.org/Public/Dist/Display.html?Name=Data-Record-Serialize-Encode-dbi"
      },
      "repository" : {
         "type" : "git",
         "url" : "https://gitlab.com/djerius/data-record-serialize-encode-dbi.git",
         "web" : "https://gitlab.com/djerius/data-record-serialize-encode-dbi"
      }
   },
   "version" : "1.08",
   "x_generated_by_perl" : "v5.38.2",
   "x_serialization_backend" : "Cpanel::JSON::XS version 4.38",
   "x_spdx_expression" : "GPL-3.0-only"
}

